module gitlab.com/devslashilly/ReplayStudio

require (
	github.com/go-gl/glfw v0.0.0-20181014061658-691ee1b84c51 // indirect
	github.com/inkyblackness/imgui-go v1.2.1 // indirect
	github.com/ulikunitz/xz v0.5.4 // indirect
)
